KWF_Beach_Sampling_Analysis_2019_2020
…
Overall Summaries

What was the range of geometric mean values?

# by year
(summ_tbl <- dat %>%
  group_by(location,data_type,year) %>%
  filter(!is.na(gm30)) %>%
  summarise(gm30_mean = mean(gm30),
            gm30_se = std.error(gm30),
            gm30_max = max(gm30),
            gm30_min = min(gm30)))

## # A tibble: 21 x 7
## # Groups:   location, data_type [11]
##    location               data_type     year gm30_mean gm30_se gm30_max gm30_min
##    <chr>                  <chr>        <dbl>     <dbl>   <dbl>    <dbl>    <dbl>
##  1 Kenai River Gull Rook~ Enterococci   2019      9.37   2.62     21.2      3.38
##  2 Kenai River Gull Rook~ Enterococci   2020      7.84   0.654    10.4      4.02
##  3 Kenai River Gull Rook~ Fecal Colif~  2019     21.6    4.73     56.0     10.9 
##  4 Kenai River Gull Rook~ Fecal Colif~  2020     61.1    8.08     94.9     33.5 
##  5 Kenai River Gull Rook~ Enterococci   2019     10.4    1.26     14.9      3.18
##  6 Kenai River Gull Rook~ Enterococci   2020      4.52   0.615     8.24     2.83
##  7 Kenai River Gull Rook~ Fecal Colif~  2019     29.2    5.86     53.6      6.66
##  8 Kenai River Gull Rook~ Fecal Colif~  2020     18.9    1.32     24.4     12.6 
##  9 North Kenai Beach 4    Enterococci   2019     37.6    7.96     69.2      9.43
## 10 North Kenai Beach 4    Enterococci   2020      6.05   0.764    10.0      2.61
## # ... with 11 more rows
…
